{
  "photos": {
    "page": 1,
    "pages": 120,
    "perpage": 100,
    "total": "11915",
    "photo": [
      {
        "id": "26302020982",
        "owner": "33363480@N05",
        "secret": "0a8e4eca8c",
        "server": "1609",
        "farm": 2,
        "title": "Autumn series",
        "ispublic": 1,
        "isfriend": 0,
        "isfamily": 0
      },
      {
        "id": "22180296956",
        "owner": "33363480@N05",
        "secret": "4afd83b139",
        "server": "5775",
        "farm": 6,
        "title": "Autumn series",
        "ispublic": 1,
        "isfriend": 0,
        "isfamily": 0
      },
      {
        "id": "21048582613",
        "owner": "33363480@N05",
        "secret": "e50bda5551",
        "server": "5689",
        "farm": 6,
        "title": "If you have no confidence in self, you are twice defeated in the race of life... Marcus Garvey",
        "ispublic": 1,
        "isfriend": 0,
        "isfamily": 0
      },
      {
        "id": "15708751326",
        "owner": "33363480@N05",
        "secret": "378fb793cb",
        "server": "5597",
        "farm": 6,
        "title": "Rome series",
        "ispublic": 1,
        "isfriend": 0,
        "isfamily": 0
      },
      {
        "id": "26086374970",
        "owner": "33363480@N05",
        "secret": "ddbc4f8427",
        "server": "1685",
        "farm": 2,
        "title": "Daughter, today I am celebrating the best gift I ever received. Thank you for coming into my world.",
        "ispublic": 1,
        "isfriend": 0,
        "isfamily": 0
      },
      {
        "id": "14268808464",
        "owner": "33363480@N05",
        "secret": "91f646d92d",
        "server": "2916",
        "farm": 3,
        "title": "Happy 20th Birthday to my precious daughter , Natasha",
        "ispublic": 1,
        "isfriend": 0,
        "isfamily": 0
      },
      {
        "id": "13234906993",
        "owner": "33363480@N05",
        "secret": "d3f215c5be",
        "server": "3833",
        "farm": 4,
        "title": "Our Man in Havana series",
        "ispublic": 1,
        "isfriend": 0,
        "isfamily": 0
      },
      {
        "id": "13340287993",
        "owner": "33363480@N05",
        "secret": "ded56e18d1",
        "server": "3825",
        "farm": 4,
        "title": "Old Havana series",
        "ispublic": 1,
        "isfriend": 0,
        "isfamily": 0
      },
      {
        "id": "26359282385",
        "owner": "33363480@N05",
        "secret": "d023299d28",
        "server": "1698",
        "farm": 2,
        "title": "Gary Oak meadow",
        "ispublic": 1,
        "isfriend": 0,
        "isfamily": 0
      },
      {
        "id": "26333337736",
        "owner": "33363480@N05",
        "secret": "2438571dc9",
        "server": "1569",
        "farm": 2,
        "title": "Camas",
        "ispublic": 1,
        "isfriend": 0,
        "isfamily": 0
      },
      {
        "id": "26086401610",
        "owner": "33363480@N05",
        "secret": "8437620587",
        "server": "1491",
        "farm": 2,
        "title": "Henderson's shooting star .. Dodecatheon hendersonii",
        "ispublic": 1,
        "isfriend": 0,
        "isfamily": 0
      },
      {
        "id": "26266893902",
        "owner": "33363480@N05",
        "secret": "d46dd03396",
        "server": "1697",
        "farm": 2,
        "title": "One marked feature of the people, both high and low, is a love for flowers. ..Robert Fortune",
        "ispublic": 1,
        "isfriend": 0,
        "isfamily": 0
      },
      {
        "id": "15174581047",
        "owner": "33363480@N05",
        "secret": "6c164f69dc",
        "server": "3839",
        "farm": 4,
        "title": "Heatwave",
        "ispublic": 1,
        "isfriend": 0,
        "isfamily": 0
      },
      {
        "id": "25257519846",
        "owner": "33363480@N05",
        "secret": "5ab47e6558",
        "server": "1670",
        "farm": 2,
        "title": "Sakura series",
        "ispublic": 1,
        "isfriend": 0,
        "isfamily": 0
      },
      {
        "id": "15564170237",
        "owner": "33363480@N05",
        "secret": "652d6a0261",
        "server": "5606",
        "farm": 6,
        "title": "\" I never really cared for the things of this world .... It was the glow of your presence ... that filled it with beauty. \"  - Hafiz",
        "ispublic": 1,
        "isfriend": 0,
        "isfamily": 0
      },
      {
        "id": "13233999975",
        "owner": "33363480@N05",
        "secret": "39da183088",
        "server": "7173",
        "farm": 8,
        "title": "Cuba . keep the motor running series",
        "ispublic": 1,
        "isfriend": 0,
        "isfamily": 0
      },
      {
        "id": "13980195976",
        "owner": "33363480@N05",
        "secret": "d9dcbd2d24",
        "server": "5008",
        "farm": 6,
        "title": "The land I had lost with my childhood-",
        "ispublic": 1,
        "isfriend": 0,
        "isfamily": 0
      },
      {
        "id": "25709636874",
        "owner": "33363480@N05",
        "secret": "27eec701e2",
        "server": "1472",
        "farm": 2,
        "title": "The late Evening  canoe adventure",
        "ispublic": 1,
        "isfriend": 0,
        "isfamily": 0
      },
      {
        "id": "26288565136",
        "owner": "33363480@N05",
        "secret": "4ef4b70c80",
        "server": "1506",
        "farm": 2,
        "title": "Early morning at our cabin",
        "ispublic": 1,
        "isfriend": 0,
        "isfamily": 0
      },
      {
        "id": "26248267511",
        "owner": "33363480@N05",
        "secret": "bc45e66b43",
        "server": "1548",
        "farm": 2,
        "title": "Whilst I was absent from Flickr .",
        "ispublic": 1,
        "isfriend": 0,
        "isfamily": 0
      },
      {
        "id": "26314508935",
        "owner": "33363480@N05",
        "secret": "1553891c86",
        "server": "1591",
        "farm": 2,
        "title": "late Evening  canoe adventure",
        "ispublic": 1,
        "isfriend": 0,
        "isfamily": 0
      },
      {
        "id": "26041632890",
        "owner": "33363480@N05",
        "secret": "5684b8436c",
        "server": "1443",
        "farm": 2,
        "title": "Ripple",
        "ispublic": 1,
        "isfriend": 0,
        "isfamily": 0
      },
      {
        "id": "25709634294",
        "owner": "33363480@N05",
        "secret": "469bebe1c2",
        "server": "1587",
        "farm": 2,
        "title": "Gabriola Island .. BC",
        "ispublic": 1,
        "isfriend": 0,
        "isfamily": 0
      },
      {
        "id": "26288554426",
        "owner": "33363480@N05",
        "secret": "cdd9e932b4",
        "server": "1702",
        "farm": 2,
        "title": "Gabriola Island",
        "ispublic": 1,
        "isfriend": 0,
        "isfamily": 0
      },
      {
        "id": "26248251291",
        "owner": "33363480@N05",
        "secret": "46cd11f581",
        "server": "1677",
        "farm": 2,
        "title": "Gabriola Island",
        "ispublic": 1,
        "isfriend": 0,
        "isfamily": 0
      },
      {
        "id": "26248250201",
        "owner": "33363480@N05",
        "secret": "470227c326",
        "server": "1559",
        "farm": 2,
        "title": "Gabriola Island . BC",
        "ispublic": 1,
        "isfriend": 0,
        "isfamily": 0
      },
      {
        "id": "26314482725",
        "owner": "33363480@N05",
        "secret": "e37b8c34cd",
        "server": "1686",
        "farm": 2,
        "title": "Spring",
        "ispublic": 1,
        "isfriend": 0,
        "isfamily": 0
      },
      {
        "id": "15257075293",
        "owner": "33363480@N05",
        "secret": "891b8f105b",
        "server": "8630",
        "farm": 9,
        "title": "I was drawn to you ...",
        "ispublic": 1,
        "isfriend": 0,
        "isfamily": 0
      },
      {
        "id": "15710246676",
        "owner": "33363480@N05",
        "secret": "d4012cd0f6",
        "server": "3950",
        "farm": 4,
        "title": "Ghoul in Rome",
        "ispublic": 1,
        "isfriend": 0,
        "isfamily": 0
      },
      {
        "id": "26011309880",
        "owner": "33363480@N05",
        "secret": "881ab50c3a",
        "server": "1679",
        "farm": 2,
        "title": "Magnolia series",
        "ispublic": 1,
        "isfriend": 0,
        "isfamily": 0
      },
      {
        "id": "13345349944",
        "owner": "33363480@N05",
        "secret": "7353ac5094",
        "server": "2863",
        "farm": 3,
        "title": "Havana . keep the motor running series",
        "ispublic": 1,
        "isfriend": 0,
        "isfamily": 0
      },
      {
        "id": "26007591470",
        "owner": "33363480@N05",
        "secret": "641e08dcfe",
        "server": "1469",
        "farm": 2,
        "title": "20 million views . many thanks ,  I am thrilled",
        "ispublic": 1,
        "isfriend": 0,
        "isfamily": 0
      },
      {
        "id": "25658835653",
        "owner": "33363480@N05",
        "secret": "0e528030e7",
        "server": "1547",
        "farm": 2,
        "title": "Magnolia series",
        "ispublic": 1,
        "isfriend": 0,
        "isfamily": 0
      },
      {
        "id": "15554897247",
        "owner": "33363480@N05",
        "secret": "4624f470c3",
        "server": "3940",
        "farm": 4,
        "title": "Ghost stories",
        "ispublic": 1,
        "isfriend": 0,
        "isfamily": 0
      },
      {
        "id": "14934386669",
        "owner": "33363480@N05",
        "secret": "25fa6df9c8",
        "server": "3855",
        "farm": 4,
        "title": "The ocean is a central image. It is the symbolism of a great journey... Enya",
        "ispublic": 1,
        "isfriend": 0,
        "isfamily": 0
      },
      {
        "id": "15735043682",
        "owner": "33363480@N05",
        "secret": "47eaab3898",
        "server": "5612",
        "farm": 6,
        "title": "The famous Galleria Borghese .. Rome",
        "ispublic": 1,
        "isfriend": 0,
        "isfamily": 0
      },
      {
        "id": "13647765135",
        "owner": "33363480@N05",
        "secret": "50b43148da",
        "server": "7030",
        "farm": 8,
        "title": "Old Havana series",
        "ispublic": 1,
        "isfriend": 0,
        "isfamily": 0
      },
      {
        "id": "19341314105",
        "owner": "33363480@N05",
        "secret": "a58b61585c",
        "server": "501",
        "farm": 1,
        "title": "Everything that is made beautiful and fair and lovely is made for the eye of one who sees... Rumi",
        "ispublic": 1,
        "isfriend": 0,
        "isfamily": 0
      },
      {
        "id": "16609302497",
        "owner": "33363480@N05",
        "secret": "ea51971f48",
        "server": "8640",
        "farm": 9,
        "title": "The view",
        "ispublic": 1,
        "isfriend": 0,
        "isfamily": 0
      },
      {
        "id": "24609945930",
        "owner": "33363480@N05",
        "secret": "3720506345",
        "server": "1460",
        "farm": 2,
        "title": "She said; 'I do not understand The words'.",
        "ispublic": 1,
        "isfriend": 0,
        "isfamily": 0
      },
      {
        "id": "13832572213",
        "owner": "33363480@N05",
        "secret": "ef2ef03bde",
        "server": "3703",
        "farm": 4,
        "title": "Caribbean beach series . Cuba",
        "ispublic": 1,
        "isfriend": 0,
        "isfamily": 0
      },
      {
        "id": "15717151696",
        "owner": "33363480@N05",
        "secret": "c03770a38d",
        "server": "7534",
        "farm": 8,
        "title": "Classic car",
        "ispublic": 1,
        "isfriend": 0,
        "isfamily": 0
      },
      {
        "id": "25647739351",
        "owner": "33363480@N05",
        "secret": "f4344f0950",
        "server": "1679",
        "farm": 2,
        "title": "The Magnolia house series",
        "ispublic": 1,
        "isfriend": 0,
        "isfamily": 0
      },
      {
        "id": "15733824645",
        "owner": "33363480@N05",
        "secret": "119e45dbc1",
        "server": "5608",
        "farm": 6,
        "title": "Rome",
        "ispublic": 1,
        "isfriend": 0,
        "isfamily": 0
      },
      {
        "id": "13233977305",
        "owner": "33363480@N05",
        "secret": "59eac4d77d",
        "server": "2849",
        "farm": 3,
        "title": "Our Man in Havana series",
        "ispublic": 1,
        "isfriend": 0,
        "isfamily": 0
      },
      {
        "id": "8663718354",
        "owner": "33363480@N05",
        "secret": "b9acf6f51c",
        "server": "8259",
        "farm": 9,
        "title": "Sakura series",
        "ispublic": 1,
        "isfriend": 0,
        "isfamily": 0
      },
      {
        "id": "13235197974",
        "owner": "33363480@N05",
        "secret": "c7f5d25d84",
        "server": "3815",
        "farm": 4,
        "title": "Old Havana series",
        "ispublic": 1,
        "isfriend": 0,
        "isfamily": 0
      },
      {
        "id": "25518652660",
        "owner": "33363480@N05",
        "secret": "f861e602a1",
        "server": "1450",
        "farm": 2,
        "title": "Its snowing .. blossoms",
        "ispublic": 1,
        "isfriend": 0,
        "isfamily": 0
      },
      {
        "id": "16476674530",
        "owner": "33363480@N05",
        "secret": "2dcd865152",
        "server": "8651",
        "farm": 9,
        "title": "Quiet silence, uncomfortable and unwanted",
        "ispublic": 1,
        "isfriend": 0,
        "isfamily": 0
      },
      {
        "id": "14006217871",
        "owner": "33363480@N05",
        "secret": "5bb9392573",
        "server": "7458",
        "farm": 8,
        "title": "Sakura series",
        "ispublic": 1,
        "isfriend": 0,
        "isfamily": 0
      },
      {
        "id": "13234174873",
        "owner": "33363480@N05",
        "secret": "8724018d3a",
        "server": "2889",
        "farm": 3,
        "title": "Caribbean beach series ..  Cuba",
        "ispublic": 1,
        "isfriend": 0,
        "isfamily": 0
      },
      {
        "id": "26162350795",
        "owner": "33363480@N05",
        "secret": "940fa05656",
        "server": "1647",
        "farm": 2,
        "title": "Sakura series",
        "ispublic": 1,
        "isfriend": 0,
        "isfamily": 0
      },
      {
        "id": "25898446030",
        "owner": "33363480@N05",
        "secret": "69c0a85375",
        "server": "1653",
        "farm": 2,
        "title": "Andalucia",
        "ispublic": 1,
        "isfriend": 0,
        "isfamily": 0
      },
      {
        "id": "14575171065",
        "owner": "33363480@N05",
        "secret": "d874cd1951",
        "server": "5471",
        "farm": 6,
        "title": "Varanasi India .. 1987",
        "ispublic": 1,
        "isfriend": 0,
        "isfamily": 0
      },
      {
        "id": "25749171121",
        "owner": "33363480@N05",
        "secret": "e8f63b0374",
        "server": "1603",
        "farm": 2,
        "title": "Sakura series",
        "ispublic": 1,
        "isfriend": 0,
        "isfamily": 0
      },
      {
        "id": "13233785725",
        "owner": "33363480@N05",
        "secret": "1e0458ef52",
        "server": "3778",
        "farm": 4,
        "title": "Old Havana series",
        "ispublic": 1,
        "isfriend": 0,
        "isfamily": 0
      },
      {
        "id": "25619769940",
        "owner": "33363480@N05",
        "secret": "4dcaab26ea",
        "server": "1540",
        "farm": 2,
        "title": "Magnolia series",
        "ispublic": 1,
        "isfriend": 0,
        "isfamily": 0
      },
      {
        "id": "15741863292",
        "owner": "33363480@N05",
        "secret": "6a97a7a28b",
        "server": "8269",
        "farm": 9,
        "title": "Speak my language",
        "ispublic": 1,
        "isfriend": 0,
        "isfamily": 0
      },
      {
        "id": "16953740748",
        "owner": "33363480@N05",
        "secret": "a49769f284",
        "server": "8727",
        "farm": 9,
        "title": "Sakura series",
        "ispublic": 1,
        "isfriend": 0,
        "isfamily": 0
      },
      {
        "id": "14335572368",
        "owner": "33363480@N05",
        "secret": "1de2261154",
        "server": "3889",
        "farm": 4,
        "title": "Nobody has ever measured, not even poets, how much the heart can hold.... Zelda Fitzgerald",
        "ispublic": 1,
        "isfriend": 0,
        "isfamily": 0
      },
      {
        "id": "13669722684",
        "owner": "33363480@N05",
        "secret": "5e0865c314",
        "server": "3696",
        "farm": 4,
        "title": "Old Havana series",
        "ispublic": 1,
        "isfriend": 0,
        "isfamily": 0
      },
      {
        "id": "15622754705",
        "owner": "33363480@N05",
        "secret": "fabbc34e2e",
        "server": "5611",
        "farm": 6,
        "title": "There are no lines in nature, only areas of colour, one against another... Edouard Manet",
        "ispublic": 1,
        "isfriend": 0,
        "isfamily": 0
      },
      {
        "id": "25817376682",
        "owner": "33363480@N05",
        "secret": "a356a90e14",
        "server": "1620",
        "farm": 2,
        "title": "As Spring awakens",
        "ispublic": 1,
        "isfriend": 0,
        "isfamily": 0
      },
      {
        "id": "15519139876",
        "owner": "33363480@N05",
        "secret": "5576373e48",
        "server": "5612",
        "farm": 6,
        "title": "Andalucia",
        "ispublic": 1,
        "isfriend": 0,
        "isfamily": 0
      },
      {
        "id": "25811693000",
        "owner": "33363480@N05",
        "secret": "8362117638",
        "server": "1644",
        "farm": 2,
        "title": "Prayer for  Pakistan",
        "ispublic": 1,
        "isfriend": 0,
        "isfamily": 0
      },
      {
        "id": "26058556996",
        "owner": "33363480@N05",
        "secret": "e8e4c37bb0",
        "server": "1508",
        "farm": 2,
        "title": "Tree of Life",
        "ispublic": 1,
        "isfriend": 0,
        "isfamily": 0
      },
      {
        "id": "13256755584",
        "owner": "33363480@N05",
        "secret": "a06bb9e6fa",
        "server": "7299",
        "farm": 8,
        "title": "Caribbean beach series ..  Cuba",
        "ispublic": 1,
        "isfriend": 0,
        "isfamily": 0
      },
      {
        "id": "16349455693",
        "owner": "33363480@N05",
        "secret": "0f012c079d",
        "server": "7606",
        "farm": 8,
        "title": "Happy Easter",
        "ispublic": 1,
        "isfriend": 0,
        "isfamily": 0
      },
      {
        "id": "25441603760",
        "owner": "33363480@N05",
        "secret": "353a9edc90",
        "server": "1665",
        "farm": 2,
        "title": "Magnolia series",
        "ispublic": 1,
        "isfriend": 0,
        "isfamily": 0
      },
      {
        "id": "15546149769",
        "owner": "33363480@N05",
        "secret": "fba4f5e75c",
        "server": "7574",
        "farm": 8,
        "title": "My feet to follow, and my heart to hold.",
        "ispublic": 1,
        "isfriend": 0,
        "isfamily": 0
      },
      {
        "id": "13316887993",
        "owner": "33363480@N05",
        "secret": "1d569ea35e",
        "server": "3707",
        "farm": 4,
        "title": "Old Havana Panorama",
        "ispublic": 1,
        "isfriend": 0,
        "isfamily": 0
      },
      {
        "id": "14268568896",
        "owner": "33363480@N05",
        "secret": "e2facfb985",
        "server": "5477",
        "farm": 6,
        "title": "Where the clear stream of reason has not lost its way",
        "ispublic": 1,
        "isfriend": 0,
        "isfamily": 0
      },
      {
        "id": "15554248577",
        "owner": "33363480@N05",
        "secret": "c9d545e94d",
        "server": "8533",
        "farm": 9,
        "title": "Rome series",
        "ispublic": 1,
        "isfriend": 0,
        "isfamily": 0
      },
      {
        "id": "25619787390",
        "owner": "33363480@N05",
        "secret": "11769591ac",
        "server": "1628",
        "farm": 2,
        "title": "Magnolia series",
        "ispublic": 1,
        "isfriend": 0,
        "isfamily": 0
      },
      {
        "id": "15554113628",
        "owner": "33363480@N05",
        "secret": "0f576395f3",
        "server": "8606",
        "farm": 9,
        "title": "Rome series",
        "ispublic": 1,
        "isfriend": 0,
        "isfamily": 0
      },
      {
        "id": "12732339595",
        "owner": "33363480@N05",
        "secret": "3b716c867e",
        "server": "3775",
        "farm": 4,
        "title": "Rajasthan .. India",
        "ispublic": 1,
        "isfriend": 0,
        "isfamily": 0
      },
      {
        "id": "25386802083",
        "owner": "33363480@N05",
        "secret": "913ffb6b4d",
        "server": "1515",
        "farm": 2,
        "title": "Poppies for Belgium",
        "ispublic": 1,
        "isfriend": 0,
        "isfamily": 0
      },
      {
        "id": "25691536860",
        "owner": "33363480@N05",
        "secret": "8413b431b1",
        "server": "1488",
        "farm": 2,
        "title": "Dancing out with the moonlit knight",
        "ispublic": 1,
        "isfriend": 0,
        "isfamily": 0
      },
      {
        "id": "15740271165",
        "owner": "33363480@N05",
        "secret": "60a16a1792",
        "server": "5597",
        "farm": 6,
        "title": "All roads lead to Rome series",
        "ispublic": 1,
        "isfriend": 0,
        "isfamily": 0
      },
      {
        "id": "25904898211",
        "owner": "33363480@N05",
        "secret": "e0171eae56",
        "server": "1663",
        "farm": 2,
        "title": "Nothing is so beautiful as spring --",
        "ispublic": 1,
        "isfriend": 0,
        "isfamily": 0
      },
      {
        "id": "25799597902",
        "owner": "33363480@N05",
        "secret": "53c8048165",
        "server": "1486",
        "farm": 2,
        "title": "The Magnolia house series",
        "ispublic": 1,
        "isfriend": 0,
        "isfamily": 0
      },
      {
        "id": "22364897070",
        "owner": "33363480@N05",
        "secret": "07c2161b89",
        "server": "602",
        "farm": 1,
        "title": "Autumn series",
        "ispublic": 1,
        "isfriend": 0,
        "isfamily": 0
      },
      {
        "id": "15547044958",
        "owner": "33363480@N05",
        "secret": "a1f6a553ce",
        "server": "3939",
        "farm": 4,
        "title": "Rome",
        "ispublic": 1,
        "isfriend": 0,
        "isfamily": 0
      },
      {
        "id": "13281358273",
        "owner": "33363480@N05",
        "secret": "f256f7e093",
        "server": "3709",
        "farm": 4,
        "title": "Caribbean beach series . Cuba",
        "ispublic": 1,
        "isfriend": 0,
        "isfamily": 0
      },
      {
        "id": "13549271395",
        "owner": "33363480@N05",
        "secret": "ab2edd0aa7",
        "server": "7190",
        "farm": 8,
        "title": "Dissidents in Cuba ??",
        "ispublic": 1,
        "isfriend": 0,
        "isfamily": 0
      },
      {
        "id": "25309471063",
        "owner": "33363480@N05",
        "secret": "3c4504aecc",
        "server": "1661",
        "farm": 2,
        "title": "As I lie in this meadow, Amidst the grandeur of Spring",
        "ispublic": 1,
        "isfriend": 0,
        "isfamily": 0
      },
      {
        "id": "13647754923",
        "owner": "33363480@N05",
        "secret": "4fb61f32b5",
        "server": "7104",
        "farm": 8,
        "title": "Old Havana series",
        "ispublic": 1,
        "isfriend": 0,
        "isfamily": 0
      },
      {
        "id": "25910857366",
        "owner": "33363480@N05",
        "secret": "e2e10177ef",
        "server": "1521",
        "farm": 2,
        "title": "The Magnolia house series",
        "ispublic": 1,
        "isfriend": 0,
        "isfamily": 0
      },
      {
        "id": "13256827614",
        "owner": "33363480@N05",
        "secret": "4cbc78b03b",
        "server": "3737",
        "farm": 4,
        "title": "Caribbean beach series ..  Cuba",
        "ispublic": 1,
        "isfriend": 0,
        "isfamily": 0
      },
      {
        "id": "13567822294",
        "owner": "33363480@N05",
        "secret": "ce2002d86d",
        "server": "7439",
        "farm": 8,
        "title": "Old Havana series .. Cuba welcomes President Obama",
        "ispublic": 1,
        "isfriend": 0,
        "isfamily": 0
      },
      {
        "id": "25723423182",
        "owner": "33363480@N05",
        "secret": "7e49b75361",
        "server": "1692",
        "farm": 2,
        "title": "Spring Equinox",
        "ispublic": 1,
        "isfriend": 0,
        "isfamily": 0
      },
      {
        "id": "25817441492",
        "owner": "33363480@N05",
        "secret": "c40b7e1f0d",
        "server": "1494",
        "farm": 2,
        "title": "Sakura series",
        "ispublic": 1,
        "isfriend": 0,
        "isfamily": 0
      },
      {
        "id": "25305419144",
        "owner": "33363480@N05",
        "secret": "fd83a3cfa6",
        "server": "1604",
        "farm": 2,
        "title": "Sakura series",
        "ispublic": 1,
        "isfriend": 0,
        "isfamily": 0
      },
      {
        "id": "15716579026",
        "owner": "33363480@N05",
        "secret": "f528fd3157",
        "server": "7469",
        "farm": 8,
        "title": "Rome series",
        "ispublic": 1,
        "isfriend": 0,
        "isfamily": 0
      },
      {
        "id": "25287672174",
        "owner": "33363480@N05",
        "secret": "0412b6f5a3",
        "server": "1564",
        "farm": 2,
        "title": "The Magnolia house series",
        "ispublic": 1,
        "isfriend": 0,
        "isfamily": 0
      },
      {
        "id": "25619800810",
        "owner": "33363480@N05",
        "secret": "44b5024e6d",
        "server": "1649",
        "farm": 2,
        "title": "The Magnolia house series",
        "ispublic": 1,
        "isfriend": 0,
        "isfamily": 0
      },
      {
        "id": "25799588822",
        "owner": "33363480@N05",
        "secret": "6ecfda4598",
        "server": "1453",
        "farm": 2,
        "title": "Magnolia house series",
        "ispublic": 1,
        "isfriend": 0,
        "isfamily": 0
      },
      {
        "id": "25920343145",
        "owner": "33363480@N05",
        "secret": "2245eaa6c3",
        "server": "1539",
        "farm": 2,
        "title": "Sakura series",
        "ispublic": 1,
        "isfriend": 0,
        "isfamily": 0
      },
      {
        "id": "23880845974",
        "owner": "33363480@N05",
        "secret": "6de66be4fa",
        "server": "1571",
        "farm": 2,
        "title": "Perhaps not to be is to be without your being",
        "ispublic": 1,
        "isfriend": 0,
        "isfamily": 0
      },
      {
        "id": "23680871149",
        "owner": "33363480@N05",
        "secret": "6a0c4342cb",
        "server": "5779",
        "farm": 6,
        "title": "A Vancouver Winter",
        "ispublic": 1,
        "isfriend": 0,
        "isfamily": 0
      }
    ]
  },
  "stat": "ok"
}